…
## Working with function calls

How many function calls does your package contain?

``` r
calls <- ls_fun_calls() 

calls
#> # A tibble: 29 x 3
#>    text                    source        line1
#>    <chr>                   <chr>         <int>
#>  1 token_is_fun_dec        ./R/analyse.R     4
#>  2 token_is_left_assign    ./R/analyse.R     5
#>  3 which                   ./R/analyse.R     6
#>  4 lead                    ./R/analyse.R     7
#>  5 lead                    ./R/analyse.R     8
#>  6 map2_int                ./R/analyse.R    12
#>  7 add_column              ./R/analyse.R    15
#>  8 which                   ./R/analyse.R    19
#>  9 parse_r                 ./R/analyse.R    42
#> 10 ls_named_fun_decs_of_pd ./R/analyse.R    43
#> # ... with 19 more rows
…
